R15EC076|Chandana H C|C,3|SQL,3|Networking,2|Linux,4|Broadcast,3|Analytical,3||18
R15EC116|Hemanth k|C,3|SQL,2|Networking,2|Linux,5|Broadcast,3|Analytical,4||19
R15EC148|Kavya Bhat|C,3|SQL,2|Networking,2|Linux,4|Broadcast,3|Analytical,5||19
R15EC117|J Ameer Basha|C,2|SQL,2|Networking,5|Linux,6|Broadcast,4|Analytical,6||25
R15CS028|Alisha Bilquis|C++,2|SQL,4|Networking,4|Linux,2|Broadcast,3|Analytical,4||19
R15EC149|Kavya Shree R Reddy|C,3|SQL,3|Networking,2|Linux,2|Broadcast,2|Analytical,3||15
R15EC114|HARSHINI V M|C,2|SQL,6|Networking,6|Linux,4|Broadcast,5|Analytical,5||28
R15CS173|KUMAR SAURAV BISHWAJEET|C,4|SQL,4|Networking,2|Linux,4|Broadcast,7|Analytical,6||27
R15EC123|JAYANTH S|C,3|SQL,3|Networking,4|Linux,3|Broadcast,7|Analytical,4||24
R15CS307|Rajashekar.C|C,3|SQL,5|Networking,7|Linux,4|Broadcast,6|Analytical,5||30
R15CS546|Polepalli Sai Ganesh|C,3|SQL,6|Networking,5|Linux,0|Broadcast,4|Analytical,1||19
R15CS038|Anil B|SQL,6|Networking,6|Linux,6|Broadcast,8|Analytical,5|C,0||31
R15CS376|SHUBHAM AGRAWAL|C,6|SQL,6|Networking,3|Linux,4|Broadcast,3|Analytical,7||29
R15CS193|mahaveer pincha|C,5|SQL,4|Networking,3|Linux,5|Broadcast,4|Analytical,5||26
R15CS337|sagar kumar|C,3|SQL,7|Networking,5|Linux,4|Broadcast,5|Analytical,7||31
R15CS014|ADITYA KUMAR SINGH|C,4|SQL,7|Networking,3|Linux,4|Broadcast,2|Analytical,6||26
R15CS495|VIJAY KUMAR GUPTA|C,4|SQL,4|Networking,4|Linux,4|Broadcast,4|Analytical,5||25
R15CS459|Ashish Yadav|C,6|SQL,6|Networking,4|Linux,4|Broadcast,3|Analytical,7||30
R15CS033|Amit Malik|C,2|SQL,6|Networking,5|Linux,4|Broadcast,6|Analytical,7||30
R15CS438|Vishal Kumar Singh|C,5|SQL,6|Networking,6|Linux,8|Broadcast,4|Analytical,3||32
R15CS140|J Bharat|C,5|SQL,4|Networking,6|Linux,7|Broadcast,5|Analytical,5||32
R16EC887|SUBHITH M S|C++,1|SQL,3|Networking,4|Linux,2|Broadcast,3|Analytical,5||18
R15EC112|S.HARINI PRIYA|C,1|SQL,3|Networking,3|Linux,3|Broadcast,5|Analytical,4||19
R15EC307|Srinivas H A|C,5|SQL,2|Networking,2|Linux,4|Broadcast,4|Analytical,4||21
R15EC315|SUDHANVA GUDI|C,5|SQL,2|Networking,2|Linux,5|Broadcast,5|Analytical,4||23
R15EC263|Ramesh D T|C,5|SQL,3|Networking,2|Linux,3|Broadcast,5|Analytical,5||23
R15EC322|SWAROOP S|C,5|SQL,2|Networking,4|Linux,4|Broadcast,4|Analytical,3||22
R15EC039|ARPIT GHOSH|C++,5|SQL,3|Networking,5|Linux,5|Broadcast,7|Analytical,4||29
R15EC047|B Ranjeeth|C,2|SQL,3|Networking,3|Linux,2|Broadcast,3|Analytical,6||19
R15EC014|Aditya B Kulkarni|C,1|SQL,2|Networking,3|Linux,2|Broadcast,6|Analytical,0||14
R15CS368|SHILPA|C,7|SQL,4|Networking,5|Linux,5|Broadcast,4|Analytical,3||28
R15CS133|Harshitha Rayapuram|C,3|SQL,6|Networking,3|Linux,6|Broadcast,3|Analytical,3||24
R15CS387|Soffiya|C,3|SQL,5|Networking,6|Linux,3|Broadcast,3|Analytical,5||25
R15CS032|AMAN KUMAR SINGH|C,5|SQL,6|Networking,4|Linux,5|Broadcast,3|Analytical,3||26
R15CS358|Shalini A|C,3|SQL,5|Networking,4|Linux,2|Broadcast,5|Analytical,1||20
R15CS031|Aman|C,4|SQL,7|Networking,3|Linux,3|Broadcast,4|Analytical,2||23
R15CS180|KUSUMA RATHNA M|C,2|SQL,6|Networking,3|Linux,3|Broadcast,6|Analytical,5||25
R15CS100|DIMPLE M.K|C,3|SQL,4|Networking,5|Linux,2|Broadcast,3|Analytical,3||20
R15EC142|KARAN M MORE|C,5|SQL,6|Networking,3|Linux,4|Broadcast,3|Analytical,5||26
R15CS344|SANDEEP B S|C,3|SQL,4|Networking,2|Linux,3|Broadcast,4|Analytical,4||20
R15CS113|GAGANA H|C,2|SQL,4|Networking,4|Linux,4|Broadcast,3|Analytical,3||20
R15CS242|Neha K R|C,4|SQL,5|Networking,2|Linux,4|Broadcast,3|Analytical,4||22
R15CS108|ESHITHA D|C,4|SQL,6|Networking,7|Linux,5|Broadcast,3|Analytical,3||28
R14CS275|Amruthashree R V|C,2|SQL,6|Networking,2|Linux,3|Broadcast,5|Analytical,4||22
R15CS159|keerthana.M|C,4|SQL,4|Networking,4|Linux,1|Broadcast,5|Analytical,3||21
R16EC864|Priya B|C,0|SQL,4|Networking,3|Linux,5|Broadcast,7|Analytical,2||21
R15EC177|Manoj J|C,5|SQL,3|Networking,4|Linux,5|Broadcast,4|Analytical,3||24
R15EC228|PALLAVI C|C,2|SQL,6|Networking,4|Linux,2|Broadcast,4|Analytical,4||22
R15EC031|ANNAPU REDDY RAVI THEJA|C++,4|SQL,4|Networking,3|Linux,6|Broadcast,7|Analytical,3||27
R15CS026|AKSHITA|C,2|SQL,4|Networking,3|Linux,4|Broadcast,6|Analytical,5||24
R15CS054|APARNA K|C,3|SQL,6|Networking,4|Linux,5|Broadcast,5|Analytical,5||28
R15CS036|ANANDITA KUSHWAHA|C,4|SQL,5|Networking,3|Linux,5|Broadcast,2|Analytical,5||24
R15CS437|Vinodh G|C,4|SQL,5|Networking,3|Linux,5|Broadcast,3|Analytical,6||26
R15CS342|SAMATA J|C,2|SQL,6|Networking,2|Linux,2|Broadcast,4|Analytical,6||22
R15CS238|Naveen Suresh Desai|C,2|SQL,3|Networking,4|Linux,6|Broadcast,3|Analytical,4||22
R15EC369|RACHANA A|C,3|SQL,3|Networking,3|Linux,3|Broadcast,5|Analytical,3||20
R15CS547|SK SHAREEF|C,1|SQL,5|Networking,1|Linux,3|Broadcast,4|Analytical,3||17
R15CS273|Peram Nithyananda Reddy|C,1|SQL,6|Networking,3|Linux,3|Broadcast,4|Analytical,5||22
R15CS296|PURVAJA VARATI|C,2|SQL,5|Networking,5|Linux,1|Broadcast,5|Analytical,4||22
R15EC092|Dhamukumar K|C,1|SQL,2|Networking,3|Linux,5|Broadcast,3|Analytical,7||21
R15CS275|Pooja G|C,2|SQL,8|Networking,4|Linux,4|Broadcast,2|Analytical,4||24
R15EC102|Gagan L|C,4|SQL,2|Networking,4|Linux,1|Broadcast,3|Analytical,4||18
R15EC090|DEVARAJ B L|C,2|SQL,2|Networking,4|Linux,4|Broadcast,5|Analytical,5||22
R15EC343|VISHWAS P|C,4|SQL,1|Networking,0|Linux,4|Broadcast,3|Analytical,4||16
R15EC375|ATHMI.J|C++,3|SQL,2|Networking,5|Linux,5|Broadcast,3|Analytical,5||23
R15CS301|R Kavyashree|C,2|SQL,6|Networking,3|Linux,2|Broadcast,3|Analytical,5||21
R15CS351|Satvik Sabharwal|C,4|SQL,3|Networking,3|Linux,4|Broadcast,7|Analytical,1||22
R15CS381|Simrin Joshi|C,6|SQL,7|Networking,5|Linux,5|Broadcast,5|Analytical,4||32
R15CS370|Shravanthi M R|C,3|SQL,5|Networking,4|Linux,0|Broadcast,0|Analytical,5||17
R15CS399|Sujoy Chakroborty|C,7|SQL,6|Networking,3|Linux,7|Broadcast,5|Analytical,6||34
R15EC404|VINAY KUMAR S|C,1|SQL,1|Networking,1|Linux,6|Broadcast,3|Analytical,4||16
R15CS456|Agam Khera|C,2|SQL,3|Networking,3|Linux,6|Broadcast,3|Analytical,4||21
R15EC358|ASHISH K|C,4|SQL,2|Networking,5|Linux,3|Broadcast,7|Analytical,4||25
R15EC353|Abhishek.K|C,3|SQL,5|Networking,4|Linux,5|Broadcast,4|Analytical,2||23
R15EC028|Anand kumar G|C,8|SQL,0|Networking,4|Linux,10|Broadcast,8|Analytical,5||35
R15CS389|Sonal Aher|C,4|SQL,6|Networking,6|Linux,4|Broadcast,3|Analytical,2||25
R15CS003|abhinav bajpai|C,5|SQL,6|Networking,2|Linux,6|Broadcast,6|Analytical,8||33
R15CS291|PRUTHVI S|C,3|SQL,6|Networking,4|Linux,5|Broadcast,7|Analytical,6||31
R15CS445|YASH NESARIKAR|C,3|SQL,5|Networking,6|Linux,3|Broadcast,4|Analytical,6||27
R15EC074|Chaitra K S|C,2|SQL,3|Networking,6|Linux,1|Broadcast,3|Analytical,2||17
R15EC099|G HARISH KUMAR REDDY|C,2|SQL,1|Networking,4|Linux,7|Broadcast,2|Analytical,5||21
R15EC064|Bindhu A G|C++,4|SQL,2|Networking,2|Linux,3|Broadcast,1|Analytical,2||14
R15CS191|Madhupriya R|C,3|SQL,5|Networking,5|Linux,3|Broadcast,5|Analytical,4||25
R15EC400|SHRUTI KULKARNI|C,5|SQL,6|Networking,3|Linux,5|Broadcast,3|Analytical,4||26
R15CS404|Suraj Nishad.R|C,2|SQL,3|Networking,5|Linux,3|Broadcast,3|Analytical,3||19
R15CS401|Suman K|C,1|SQL,5|Networking,2|Linux,2|Broadcast,1|Analytical,2||13
R15EC034|Anusha S|C,4|SQL,1|Networking,3|Linux,3|Broadcast,4|Analytical,7||22
R15CS432|VENKATESH TD|C,5|SQL,4|Networking,4|Linux,6|Broadcast,4|Analytical,6||29
R15CS530|Ambika|C++,3|SQL,7|Networking,4|Linux,3|Broadcast,1|Analytical,3||21
R14EC260|Uppunda Aditya Karanth|C,3|SQL,1|Networking,3|Linux,4|Broadcast,5|Analytical,5||21
R15CS053|ANUSHA ROY|C,2|SQL,7|Networking,3|Linux,4|Broadcast,3|Analytical,1||20
R15CS062|ashwini|C,2|SQL,7|Networking,2|Linux,4|Broadcast,1|Analytical,1||17
R15EC035|Anvitha R|C++,5|SQL,5|Networking,3|Linux,4|Broadcast,4|Analytical,3||24
R16EC826|Chaithra|C,4|SQL,2|Networking,3|Linux,4|Broadcast,4|Analytical,4||21
R15CS022|AKASH SHARMA|C,4|SQL,7|Networking,3|Linux,6|Broadcast,3|Analytical,3||26
R15EC012|ADITHYA GS|C,3|SQL,5|Networking,5|Linux,1|Broadcast,2|Analytical,2||18
R15CS153|SUDARSAN REDDY|C,3|SQL,4|Networking,3|Linux,3|Broadcast,5|Analytical,5||23
R14CS025|B.Ravi Teja|C,4|SQL,5|Networking,4|Linux,2|Broadcast,3|Analytical,2||20
R15CS015|ADUSUMILLIPRASANTH|SQL,5|Networking,4|Linux,5|Broadcast,5|Analytical,4|C,2||25
R15CS391|SOWMYA AV|C,2|SQL,7|Networking,4|Linux,4|Broadcast,4|Analytical,2||23
R15EC273|SACHIN P BALAPPAGOUDAR|C,1|SQL,1|Networking,1|Linux,4|Broadcast,4|Analytical,4||15
R15EC054|BEERAE  UDAYAKUMAR|C,4|SQL,1|Networking,4|Linux,4|Broadcast,4|Analytical,3||20
R15EC236|POLA HEMRAJ|C,3|SQL,4|Networking,3|Linux,3|Broadcast,4|Analytical,5||22
R15CS127|HAMSAVANI R|C,4|SQL,4|Networking,4|Linux,7|Broadcast,5|Analytical,3||27
R15CS239|NAVYASHREE M A|Java,4|SQL,4|Networking,4|Linux,5|Broadcast,5|Analytical,4||26
R15CS125|B GUNA SHEKAR|C,4|SQL,4|Networking,4|Linux,6|Broadcast,4|Analytical,5||27
R15CS245|Nijamudheen A|C,1|SQL,1|Networking,4|Linux,3|Broadcast,4|Analytical,3||16
R15CS092|Darshak N|Java,4|SQL,7|Networking,4|Linux,5|Broadcast,6|Analytical,6||32
R15CS099|DHANUSH S|C,3|SQL,6|Networking,6|Linux,6|Broadcast,4|Analytical,5||30
R15CS552|M Veera Sandeep|Java,4|SQL,7|Networking,4|Linux,7|Broadcast,5|Analytical,3||30
R15CS256|NUPUR CHOUDHURY|Java,5|SQL,4|Networking,4|Linux,5|Broadcast,4|Analytical,6||28
R15EC107|Gujarathi Yugandhar Sainath|C,3|SQL,3|Networking,4|Linux,4|Broadcast,4|Analytical,2||20
R15CS071|B Kavya|C,2|SQL,6|Networking,8|Linux,5|Broadcast,5|Analytical,4||30
R15EC150|KIRAN H GIDAGANTI|C,2|SQL,2|Networking,6|Linux,4|Broadcast,3|Analytical,4||21
R15CS529|AKSHATHA PATIL|C,5|SQL,6|Networking,1|Linux,4|Broadcast,2|Analytical,3||21
R15CS216|MONALISHA BANDYOPADHYAY|Java,3|SQL,4|Networking,3|Linux,5|Broadcast,5|Analytical,4||24
R15CS531|Anushree Patil|C,3|SQL,6|Networking,5|Linux,4|Broadcast,5|Analytical,4||27
R15CS257|Omprakash Goswamy.R|C,1|SQL,6|Networking,3|Linux,0|Broadcast,1|Analytical,3||14
R15CS074|Besiahgari Dinesh|C,2|SQL,5|Networking,3|Linux,6|Broadcast,5|Analytical,3||24
R15CS219|Mujeefa.M.Shaikh|C,2|SQL,3|Networking,5|Linux,5|Broadcast,5|Analytical,5||25
R15CS215|MOHIT KUMAR|Java,5|SQL,5|Networking,4|Linux,5|Broadcast,6|Analytical,6||31
R15EC167|MADHURA GOWDA C M|C,4|SQL,3|Networking,1|Linux,2|Broadcast,3|Analytical,5||18
R15EC348|YALLAPU VINOD KUMAR|C,1|SQL,4|Networking,3|Linux,4|Broadcast,2|Analytical,5||19
R15CS137|Iranna G Gudaganatti|C,3|SQL,4|Networking,3|Linux,4|Broadcast,5|Analytical,7||26
R15CS278|Poorvi  Tyagi|C,0|SQL,4|Networking,4|Linux,6|Broadcast,6|Analytical,3||23
R15EC052|Balam Saikiran|C,2|SQL,5|Networking,4|Linux,5|Broadcast,4|Analytical,5||25
R15EC056|BELLE SUMANTH KRISHNA|Java,4|SQL,3|Networking,1|Linux,4|Broadcast,1|Analytical,5||18
R15CS252|NISHWAL SHETTY|C,4|SQL,5|Networking,2|Linux,3|Broadcast,6|Analytical,3||23
R15CS298|Puttul Kumari|C,1|SQL,2|Networking,4|Linux,4|Broadcast,1|Analytical,2||14
R15CS165|Kiran kumar.B|C,4|SQL,7|Networking,4|Linux,4|Broadcast,3|Analytical,3||25
R16EC836|k shilpa allurkar|C,2|SQL,2|Networking,2|Linux,3|Broadcast,4|Analytical,3||16
R15EC242|PRAFULLA|C,3|SQL,2|Networking,3|Linux,6|Broadcast,4|Analytical,5||23
R15EC230|Paramjit Singh|C,3|SQL,5|Networking,3|Linux,2|Broadcast,6|Analytical,3||22
R15CS532|Ashank Jude Titus Dsouza|C++,5|SQL,5|Networking,4|Linux,5|Broadcast,2|Analytical,4||25
R15CS190|M SANDEEP|C++,3|SQL,6|Networking,2|Linux,5|Broadcast,6|Analytical,7||29
R15EC210|Neeluru Gopalakrishna|C,1|SQL,3|Networking,3|Linux,3|Broadcast,2|Analytical,3||15
R15CS465|Dharanija G|C,3|SQL,7|Networking,6|Linux,4|Broadcast,4|Analytical,3||27
R15CS101|Disha.J|C,4|SQL,4|Networking,4|Linux,3|Broadcast,2|Analytical,3||20
R15CS097|Deepanshu|C,5|SQL,7|Networking,5|Linux,5|Broadcast,6|Analytical,5||33
R15CS232|NANDINI SRIRAM|C,3|SQL,3|Networking,7|Linux,5|Broadcast,5|Analytical,5||28
R15CS087|chaitanya|C,5|SQL,6|Networking,2|Linux,4|Broadcast,6|Analytical,4||27
R15CS056|ARE SAITEJA|C,9|SQL,8|Networking,5|Linux,8|Broadcast,8|Analytical,5||43
R15CS217|Monica Sree G R|C,1|SQL,5|Networking,4|Linux,6|Broadcast,3|Analytical,6||25
R15CS364|SHASHANK D|C,4|SQL,4|Networking,3|Linux,5|Broadcast,2|Analytical,2||20
R15EC053|BASAVARAJ J N|C,5|SQL,1|Networking,4|Linux,6|Broadcast,2|Analytical,3||21
R15CS212|MITALI SAHOO|Java,4|SQL,4|Networking,3|Linux,6|Broadcast,6|Analytical,7||30
R15CS250|Niranjan V H|C,4|SQL,5|Networking,5|Linux,2|Broadcast,5|Analytical,5||26
R15EC172|MANEESHA M.J|C,3|SQL,7|Networking,3|Linux,5|Broadcast,5|Analytical,6||29
R15EC173|manikumar HL|C,2|SQL,4|Networking,5|Linux,3|Broadcast,6|Analytical,4||24
R15EC176|Manjukiran HC|C,5|SQL,3|Networking,3|Linux,5|Broadcast,4|Analytical,5||25
R15EC161|LALITH KISHOR M|C,5|SQL,4|Networking,1|Linux,2|Broadcast,3|Analytical,5||20
R15EC155|KOWSHIK K|C,3|SQL,3|Networking,2|Linux,5|Broadcast,3|Analytical,3||19
R15CS268|PAPPURU DINESH SAI|C,2|SQL,7|Networking,4|Linux,7|Broadcast,6|Analytical,7||33
R15CS281|PRAHARSH R|C,4|SQL,6|Networking,5|Linux,7|Broadcast,6|Analytical,4||32
R15EC269|RUDRANATH KARMAKAR|C,5|SQL,4|Networking,6|Linux,6|Broadcast,3|Analytical,5||29
R15EC298|SINDHURA K.J|C,2|SQL,4|Networking,4|Linux,2|Broadcast,4|Analytical,6||22
R15EC256|Radha Anil Kandakatla|C,3|SQL,4|Networking,2|Linux,3|Broadcast,5|Analytical,6||23
R15EC203|NAGUMOTU SREE JYOTHI|Java,4|SQL,6|Networking,2|Linux,4|Broadcast,2|Analytical,1||19
R15EC261|RAKESH V|C++,3|SQL,3|Networking,3|Linux,5|Broadcast,4|Analytical,5||23
R15EC217|Nischal Sanil|C,4|SQL,3|Networking,6|Linux,5|Broadcast,3|Analytical,5||26
R15EC246|PRASANNA M|C,5|SQL,4|Networking,7|Linux,2|Broadcast,2|Analytical,5||25
R15EC231|Pasumarthy Ankith Naga Venkat|C++,4|SQL,4|Networking,6|Linux,7|Broadcast,3|Analytical,6||30
R15EC227|Padmaja.s|SQL,0|Networking,0|Linux,0|Broadcast,0|Analytical,0|Java,3||3
R15CS030|ALYINA MOHSIN|C,2|SQL,5|Networking,3|Linux,2|Broadcast,3|Analytical,3||18
R15EC122|JANANI S|C++,3|SQL,4|Networking,5|Linux,4|Broadcast,4|Analytical,6||26
R15CS377|shubham kashyap|Java,4|SQL,8|Networking,5|Linux,0|Broadcast,0|Analytical,2||19
R15CS157|Keerthana Kumari H V|C,4|SQL,4|Networking,5|Linux,4|Broadcast,4|Analytical,2||23
R15CS027|Alisha Bhatt|C,2|SQL,5|Networking,2|Linux,4|Broadcast,3|Analytical,2||18
R15EC067|BOMMIREDDY PRAVALLIKA|C,4|SQL,4|Networking,5|Linux,2|Broadcast,5|Analytical,10||30
R15EC048|B.SAI JYOTHSNA|C,2|SQL,2|Networking,2|Linux,4|Broadcast,5|Analytical,4||19
R15CS210|Meghana MP|C,3|SQL,4|Networking,3|Linux,3|Broadcast,1|Analytical,5||19
R15CS218|Monisha R|C,3|SQL,6|Networking,4|Linux,4|Broadcast,3|Analytical,2||22
R15CS203|Matle Venkata Anusha|C,4|SQL,6|Networking,5|Linux,3|Broadcast,5|Analytical,7||30
R15CS185|LIPIKA SREEDHARAN|Java,0|SQL,5|Networking,5|Linux,5|Broadcast,2|Analytical,6||23
R15CS186|LISHA KAMALA.K|Java,0|SQL,3|Networking,4|Linux,4|Broadcast,5|Analytical,2||18
R15EC080|Chilamakuru Manasa|C,3|SQL,3|Networking,4|Linux,3|Broadcast,3|Analytical,1||17
R15CS209|MEGHANA AK|C,2|SQL,5|Networking,2|Linux,3|Broadcast,2|Analytical,4||18
R15EC351|YEDULA SAI VINEELA REDDY|C,3|SQL,1|Networking,3|Linux,2|Broadcast,2|Analytical,4||15
R15EC164|LEKHASHREE S N|C,3|SQL,3|Networking,4|Linux,4|Broadcast,4|Analytical,5||23
R15CS168|KOMALA MOTETTINA NAGARAJA|C,1|SQL,2|Networking,3|Linux,3|Broadcast,5|Analytical,4||18
R15EC320|SUSHMA S UPADHYA|C,3|SQL,4|Networking,3|Linux,2|Broadcast,3|Analytical,6||21
R15EC308|SRIPRADA S|C,2|SQL,4|Networking,5|Linux,4|Broadcast,5|Analytical,6||26
R15EC332|vANDANASHREE|C,6|SQL,4|Networking,3|Linux,4|Broadcast,3|Analytical,4||24
R15CS188|M.SNEHA|C,4|SQL,4|Networking,5|Linux,2|Broadcast,5|Analytical,6||26
R15CS313|Ramya R|C,2|SQL,4|Networking,3|Linux,4|Broadcast,4|Analytical,2||19
R15EC121|Jamuna.C.J|C,0|SQL,1|Networking,3|Linux,5|Broadcast,1|Analytical,4||14
R15EC045|B Divya Bharathi|C,1|SQL,3|Networking,6|Linux,3|Broadcast,3|Analytical,4||20
R15EC079|Chilamakuri Kavya Sri|C,3|SQL,3|Networking,1|Linux,5|Broadcast,2|Analytical,5||19
R15CS161|KEERTHI CHANDRA.P|Java,6|SQL,6|Networking,6|Linux,6|Broadcast,4|Analytical,5||33
R15CS090|LIKITHA DAIPHULE|Java,5|SQL,5|Networking,7|Linux,4|Broadcast,4|Analytical,3||28
R15CS398|SUHIENA SHAZLEEM M GHOUSE|C,3|SQL,5|Networking,3|Linux,5|Broadcast,3|Analytical,6||25
R15EC301|Soumya R Kerakalamatti|C,2|SQL,4|Networking,4|Linux,3|Broadcast,5|Analytical,2||20
R15CS320|Revathy.T|C,3|SQL,6|Networking,5|Linux,4|Broadcast,2|Analytical,1||21
R15EC158|KRISHNAMURTHY SREEDEVI|C,4|SQL,2|Networking,4|Linux,3|Broadcast,5|Analytical,7||25
R15CS348|SANJANA SUMAN|C,2|SQL,6|Networking,4|Linux,2|Broadcast,4|Analytical,6||24
R15EC193|MONIKA R|C,4|SQL,3|Networking,2|Linux,4|Broadcast,5|Analytical,3||21
R15CS369|Shivani Narayan|C,2|SQL,4|Networking,8|Linux,5|Broadcast,4|Analytical,6||29
R15CS167|KOMALA.M|C,2|SQL,7|Networking,3|Linux,5|Broadcast,1|Analytical,4||22
R15EC036|Apoorva P R|C,0|SQL,5|Networking,1|Linux,2|Broadcast,3|Analytical,5||16
R15CS409|Swathi S.G|C,4|SQL,6|Networking,3|Linux,3|Broadcast,4|Analytical,2||22
R15CS436|Vineeth P|C,5|SQL,6|Networking,4|Linux,4|Broadcast,5|Analytical,4||28
R15CS361|Sharada S|C,3|SQL,6|Networking,2|Linux,5|Broadcast,2|Analytical,3||21
R15EC318|Sumana.R|C,3|SQL,3|Networking,3|Linux,5|Broadcast,4|Analytical,3||21
R15EC147|KAVAREHAKKAL KAVYA|C,3|SQL,4|Networking,3|Linux,2|Broadcast,7|Analytical,3||22
R15EC151|Komal Kiran Rane|C,2|SQL,4|Networking,3|Linux,3|Broadcast,3|Analytical,6||21
R15CS412|T.Hashmitha|C,4|SQL,3|Networking,3|Linux,2|Broadcast,4|Analytical,2||18
R15EC283|SEEMA|C,4|SQL,4|Networking,4|Linux,4|Broadcast,2|Analytical,4||22
R15EC169|MAMATHA R|C,3|SQL,3|Networking,2|Linux,6|Broadcast,1|Analytical,3||18
R15EC187|MEGHANA T|C,3|SQL,5|Networking,3|Linux,4|Broadcast,3|Analytical,6||24
R15EC186|MEGHANA.N.MURTHY|C,5|SQL,2|Networking,5|Linux,5|Broadcast,4|Analytical,4||25
R15EC104|GATTU SOWMYA|C,4|SQL,3|Networking,5|Linux,5|Broadcast,4|Analytical,5||26
R15EC163|LAVANYA S|C++,0|SQL,4|Networking,5|Linux,2|Broadcast,4|Analytical,4||19
R15CS195|mallikarjun b golasangi|C,2|SQL,4|Networking,3|Linux,6|Broadcast,5|Analytical,4||24
R15EC294|SHRUTHI VN|C,2|SQL,3|Networking,3|Linux,5|Broadcast,4|Analytical,4||21
R15EC062|BHAVYA G|C,3|SQL,1|Networking,2|Linux,6|Broadcast,4|Analytical,3||19
R15EC020|Akash M|C,0|SQL,2|Networking,4|Linux,1|Broadcast,2|Analytical,4||13
R15EC327|USHA H R|C,6|SQL,5|Networking,3|Linux,6|Broadcast,1|Analytical,4||25
R15CS393|SRIRAMYA M S|C++,6|SQL,5|Networking,5|Linux,3|Broadcast,5|Analytical,9||33
R15EC293|SHREYANSH KUMAR CHHAJER|C,2|SQL,4|Networking,4|Linux,4|Broadcast,5|Analytical,3||22
R15CS405|Surbhi Pathak|C,6|SQL,5|Networking,3|Linux,5|Broadcast,2|Analytical,2||23
R15CS428|VEDASHREE D|C++,8|SQL,6|Networking,6|Linux,5|Broadcast,3|Analytical,4||32
R16EC892|SUNITHKUMAR V|C++,6|SQL,3|Networking,5|Linux,6|Broadcast,4|Analytical,4||28
R15EC321|Swarnalatha B N|C,3|SQL,1|Networking,5|Linux,3|Broadcast,1|Analytical,4||17
R15EC297|SIMRANJEET KOUR|C,1|SQL,3|Networking,3|Linux,2|Broadcast,2|Analytical,2||13
R15EC303|Spoorthi K B|C,6|SQL,4|Networking,3|Linux,5|Broadcast,4|Analytical,4||26
R15EC302|Sowmyashree H R|C,6|SQL,5|Networking,5|Linux,4|Broadcast,3|Analytical,6||29
R15EC291|Shivaprakash O M|C,3|SQL,2|Networking,3|Linux,3|Broadcast,5|Analytical,6||22
R15EC304|sravani mb|C,6|SQL,7|Networking,3|Linux,4|Broadcast,2|Analytical,4||26
R15CS016|AISHWARYA BABU K S|SQL,6|Networking,6|Linux,6|Broadcast,3|Analytical,1|C,2||24
R15CS419|TWINKLE P|C,4|SQL,6|Networking,3|Linux,5|Broadcast,1|Analytical,1||20
R15CS037|ANANNYA ROSHAN|SQL,2|Networking,4|Linux,4|Broadcast,4|Analytical,4|SQL,2||20
R15EC319|Sunethra B B|C,4|SQL,3|Networking,4|Linux,4|Broadcast,2|Analytical,5||22
R15EC023|AKSHAY MAHATO|C,4|SQL,2|Networking,4|Linux,4|Broadcast,4|Analytical,1||19
R15EC115|HARSHITHA.G|C,3|SQL,1|Networking,6|Linux,1|Broadcast,4|Analytical,1||16
R15EC041|Ashwaj S shetty|C,4|SQL,7|Networking,3|Linux,7|Broadcast,5|Analytical,4||30
R15CS339|Sakshi Suman|C++,5|SQL,5|Networking,6|Linux,4|Broadcast,4|Analytical,3||27
R15EC145|KASTURIMA PATHAK|C,2|SQL,6|Networking,2|Linux,1|Broadcast,1|Analytical,3||15
R15EC270|RUMAN PASHA|C,3|SQL,3|Networking,6|Linux,5|Broadcast,5|Analytical,4||26
R15CS175|kumari nisha rani|C,1|SQL,7|Networking,4|Linux,0|Broadcast,3|Analytical,5||20
R16CS838|vanitha g c|C,3|SQL,2|Networking,3|Linux,2|Broadcast,1|Analytical,3||14
R15CS402|SUPRIYA M N|C,5|SQL,5|Networking,3|Linux,4|Broadcast,3|Analytical,3||23
R15EC235|Pavithra A|C,3|SQL,2|Networking,2|Linux,2|Broadcast,2|Analytical,5||16
R15EC113|HARINI R M|C,4|SQL,5|Networking,4|Linux,5|Broadcast,5|Analytical,6||29
R15CS048|ANUPAMA DM|C,3|SQL,6|Networking,7|Linux,6|Broadcast,4|Analytical,3||29
R15EC243|Pragathi C|C,3|SQL,4|Networking,3|Linux,2|Broadcast,3|Analytical,3||18
R15EC324|Teja k|C,1|SQL,5|Networking,2|Linux,5|Broadcast,2|Analytical,3||18
R15EC215|NIKITHA V|C,3|SQL,2|Networking,1|Linux,3|Broadcast,5|Analytical,5||19
R15EC132|K M NANDINI RAO|C,3|SQL,4|Networking,5|Linux,2|Broadcast,3|Analytical,5||22
R15EC111|Hamsalekha U.V|C,3|SQL,2|Networking,2|Linux,3|Broadcast,2|Analytical,3||15
R15EC220|NIVEDITHA M R|C,6|SQL,3|Networking,3|Linux,3|Broadcast,4|Analytical,5||24
R15CS017|AISHWARYA R|C,4|SQL,4|Networking,3|Linux,2|Broadcast,3|Analytical,5||21
R15CS143|Jagriti|C,3|SQL,7|Networking,6|Linux,5|Broadcast,6|Analytical,6||33
R15EC241|Poojitha M|C,2|SQL,7|Networking,1|Linux,1|Broadcast,4|Analytical,7||22
R15EC334|Venkat Reddy T|Java,5|SQL,3|Networking,3|Linux,3|Broadcast,2|Analytical,0||16
R15CS144|JAMAKHANDI NIKETHA MOHAN|C,3|SQL,9|Networking,4|Linux,4|Broadcast,5|Analytical,6||31
R15EC333|Veeresh Hiremath|C,4|SQL,3|Networking,4|Linux,6|Broadcast,4|Analytical,2||23
R15EC232|PASUPULETI JYOSHNA|C,3|SQL,4|Networking,5|Linux,4|Broadcast,2|Analytical,5||23
R16CS806|Dinesh GP|C,3|SQL,6|Networking,4|Linux,4|Broadcast,5|Analytical,3||25
R16CS823|Pradeep Kumar S M|C,2|SQL,4|Networking,4|Linux,6|Broadcast,3|Analytical,6||25
R15CS336|SAGAR HJ|C,4|SQL,3|Networking,2|Linux,2|Broadcast,3|Analytical,4||18
R15CS052|Anusha P|C,3|SQL,6|Networking,6|Linux,5|Broadcast,3|Analytical,5||28
R16CS841|vishnuvardhan reddy|C,4|SQL,3|Networking,4|Linux,4|Broadcast,2|Analytical,2||19
R16CS808|Harish.M|C,3|SQL,5|Networking,6|Linux,1|Broadcast,2|Analytical,4||21
R15EC397|Nagesh Halkarti|C,5|SQL,3|Networking,3|Linux,5|Broadcast,5|Analytical,4||25
R15CS035|AMITH SINGH S|C,3|SQL,5|Networking,4|Linux,4|Broadcast,6|Analytical,4||26
R15CS064|Athreya Shetty B|SQL,5|Networking,4|Linux,6|Broadcast,2|Analytical,3|C,3||23
R15CS082|BORRA L S CHAITANYA REDDY|C,4|SQL,4|Networking,5|Linux,4|Broadcast,5|Analytical,2||24
R15CS012|Adithya R Hande|C,4|SQL,4|Networking,5|Linux,4|Broadcast,6|Analytical,7||30
R15CS528|Akash Rana|C,2|SQL,4|Networking,3|Linux,4|Broadcast,3|Analytical,2||18
R15CS105|dudekula siva kumar|C,4|SQL,4|Networking,5|Linux,2|Broadcast,2|Analytical,0||17
R15CS236|NARRA LIKHITHA|C,3|SQL,3|Networking,3|Linux,5|Broadcast,2|Analytical,3||19
R15EC340|VINUTHANA NR|Java,3|SQL,4|Networking,5|Linux,3|Broadcast,2|Analytical,3||20
R15CS229|Nagineni Yamini|C,1|SQL,5|Networking,5|Linux,3|Broadcast,5|Analytical,7||26
R15CS061|ashok kumar j m|C,3|SQL,6|Networking,6|Linux,5|Broadcast,0|Analytical,0||20
R15EC078|Chethana M|C,4|SQL,2|Networking,4|Linux,1|Broadcast,3|Analytical,2||16
R15CS349|SANJANA B|C,1|SQL,0|Networking,2|Linux,4|Broadcast,0|Analytical,4||11
R15CS538|konda guna mahendra rao|Java,0|SQL,1|Networking,3|Linux,2|Broadcast,2|Analytical,2||10
R16EC851|MOHAN KUMAR G N|C,2|SQL,5|Networking,2|Linux,6|Broadcast,2|Analytical,0||17
R15CS043|ANNVIN VINCENT|Java,5|SQL,4|Networking,3|Linux,3|Broadcast,3|Analytical,4||22
R15EC394|Archana Ck|C,2|SQL,5|Networking,6|Linux,2|Broadcast,5|Analytical,2||22
R15CS060|arya s|C,3|SQL,6|Networking,5|Linux,4|Broadcast,3|Analytical,3||24
R15EC240|POOJA.R|C,3|SQL,6|Networking,1|Linux,4|Broadcast,2|Analytical,3||19
R16EC853|NARASIMHAMURTHY B|C,4|SQL,3|Networking,2|Linux,5|Broadcast,2|Analytical,4||20
R16EC898|vasimakram mulla|C,3|SQL,2|Networking,5|Linux,4|Broadcast,5|Analytical,2||21
R15EC352|YESHASWINI.D|C,3|SQL,4|Networking,4|Linux,2|Broadcast,1|Analytical,5||19
R15CS049|Anupama Yerramshetty|C,1|SQL,4|Networking,5|Linux,3|Broadcast,3|Analytical,4||20
R15EC238|POOJA|C,2|SQL,1|Networking,1|Linux,5|Broadcast,4|Analytical,2||15
R16EC811|Anil hebballi|C,2|SQL,0|Networking,4|Linux,5|Broadcast,4|Analytical,1||16
R15EC347|Yadavalli Vinuthnasupriya|Java,2|SQL,2|Networking,4|Linux,0|Broadcast,3|Analytical,3||14
R15CS543|MOUNIKA|C,2|SQL,4|Networking,2|Linux,4|Broadcast,4|Analytical,3||19
R15EC331|Vandana MJ|Java,3|SQL,3|Networking,5|Linux,5|Broadcast,3|Analytical,3||22
R15EC336|Vidya D|C,2|SQL,2|Networking,5|Linux,6|Broadcast,4|Analytical,4||23
R15CS410|SWETHA G|C,4|SQL,6|Networking,2|Linux,4|Broadcast,2|Analytical,4||22
R15CS051|Anusha D Kulkarni|C,1|SQL,5|Networking,6|Linux,3|Broadcast,5|Analytical,4||24
R15CS427|Vedashree C|C,4|SQL,2|Networking,3|Linux,4|Broadcast,0|Analytical,5||18
R16EC874|SANJAY L P|C,2|SQL,4|Networking,4|Linux,2|Broadcast,5|Analytical,4||21
R15CS394|Suchitra sp|C,1|SQL,4|Networking,3|Linux,4|Broadcast,2|Analytical,5||19
R16EC896|Varsha N P|C,2|SQL,3|Networking,3|Linux,4|Broadcast,2|Analytical,1||15
R15CS433|VIDHYASHREE.S|C,2|SQL,4|Networking,3|Linux,4|Broadcast,3|Analytical,2||18
R15CS413|Tadipatri moga.Yasmeen|C,2|SQL,1|Networking,5|Linux,4|Broadcast,3|Analytical,4||19
R15CS196|Maniparthu m|C,3|SQL,6|Networking,1|Linux,4|Broadcast,2|Analytical,4||20
R15CS131|Harshitha.HG|C,4|SQL,4|Networking,3|Linux,3|Broadcast,2|Analytical,4||20
R15CS421|Uma G N|C,3|SQL,5|Networking,4|Linux,4|Broadcast,4|Analytical,5||25
R15EC339|VINUPRIYA.M|C,4|SQL,6|Networking,4|Linux,3|Broadcast,2|Analytical,5||24
R15CS380|SIDDAVATAM HAREESH KUMAR REDDY|C,3|SQL,3|Networking,4|Linux,3|Broadcast,3|Analytical,4||20
R15EC042|ASHWINI.V|C,1|SQL,4|Networking,0|Linux,2|Broadcast,1|Analytical,3||11
R15CS386|SNEHA.M|C,2|SQL,6|Networking,2|Linux,3|Broadcast,4|Analytical,4||21
R15EC278|Sandhyarani L|C,2|SQL,2|Networking,4|Linux,3|Broadcast,3|Analytical,5||19
R15CS220|MULLANGI CHENCHU JANAKI|C,3|SQL,3|Networking,4|Linux,3|Broadcast,5|Analytical,3||21
R15EC376|HRISHIKESH|C,1|SQL,2|Networking,3|Linux,2|Broadcast,3|Analytical,1||12
R15CS198|MANJUNATH KO|C,3|SQL,5|Networking,7|Linux,6|Broadcast,5|Analytical,3||29
R15CS248|NIMMAGADDA RAMAKRISHNA|C,3|SQL,4|Networking,7|Linux,7|Broadcast,1|Analytical,1||23
R15EC019|AISHWARYA P|C,3|SQL,3|Networking,4|Linux,3|Broadcast,4|Analytical,5||22
R15EC337|VIJAYKUMAR MANATURAGIMATH|C,3|SQL,4|Networking,4|Linux,4|Broadcast,4|Analytical,3||22
R15CS390|SOUBHAGYALAXMI NERABENCHI|C,3|SQL,6|Networking,3|Linux,5|Broadcast,1|Analytical,2||20
R15CS345|SANDEEP G|C,1|SQL,7|Networking,4|Linux,3|Broadcast,4|Analytical,4||23
R15CS388|Somesh Yadav|C,3|SQL,3|Networking,6|Linux,4|Broadcast,5|Analytical,7||28
R15CS194|Maheshkumar|C,3|SQL,4|Networking,5|Linux,6|Broadcast,3|Analytical,3||24
R15EC237|Ponnapureddy Vishnuja|C,1|SQL,2|Networking,3|Linux,4|Broadcast,2|Analytical,3||15
R15EC272|S V ULLAS KUMAR|C,3|SQL,5|Networking,5|Linux,5|Broadcast,4|Analytical,4||26
R15CS536|J Aditya  Phani Datta Manoj|C,6|SQL,11|Networking,7|Linux,7|Broadcast,6|Analytical,6||43
R15CS318|Ravin R Menon|C,3|SQL,5|Networking,2|Linux,5|Broadcast,3|Analytical,5||23
R15EC087|Deepika K V|C,5|SQL,4|Networking,3|Linux,7|Broadcast,3|Analytical,4||26
R15EC008|ABHIRAM T S|C,2|SQL,2|Networking,3|Linux,2|Broadcast,8|Analytical,5||22
R15EC040|ARPITHA R SABARAD|C,1|SQL,1|Networking,1|Linux,3|Broadcast,6|Analytical,7||19
R15EC084|Deekshith P|C,6|SQL,5|Networking,6|Linux,5|Broadcast,4|Analytical,3||29
R15CS534|Darren B Thomas|C,4|SQL,4|Networking,3|Linux,4|Broadcast,4|Analytical,2||21
R15CS023|AKASH SRIVASTAVA|C,4|SQL,8|Networking,4|Linux,5|Broadcast,7|Analytical,4||32
R15EC344|VISHWAS R VALKE|C,3|SQL,2|Networking,3|Linux,6|Broadcast,4|Analytical,1||19
R15CS025|AKSHAY RAJAN|C,3|SQL,7|Networking,5|Linux,5|Broadcast,4|Analytical,6||30
R15CS201|Mareedu Likhitha Vijayanjali|C,2|SQL,4|Networking,4|Linux,2|Broadcast,5|Analytical,4||21
R15EC252|priyanka k m|C,2|SQL,4|Networking,3|Linux,4|Broadcast,4|Analytical,1||18
R15CS042|annu malik|C,2|SQL,7|Networking,6|Linux,4|Broadcast,4|Analytical,3||26
R15EC088|Deepika M D|C,2|SQL,6|Networking,5|Linux,4|Broadcast,3|Analytical,4||24
R15EC033|Anusha R|C,4|SQL,4|Networking,6|Linux,7|Broadcast,6|Analytical,3||30
R15CS005|ABHISHEK K|C,3|SQL,4|Networking,4|Linux,5|Broadcast,1|Analytical,5||22
R15CS013|ADITYA KRISHNA K.V.S.|C,3|SQL,6|Networking,8|Linux,5|Broadcast,3|Analytical,5||30
R15CS246|Nikhil.N|C,3|SQL,6|Networking,4|Linux,4|Broadcast,3|Analytical,4||24
R15CS549|Shreyas N I|JavaScript,5|SQL,4|Networking,4|Linux,6|Broadcast,7|Analytical,5||31
R14CS262|shaik abdul khader rabbani|C,0|SQL,2|Networking,3|Linux,4|Broadcast,5|Analytical,7||21
R15CS333|S TEJASREE|C,2|SQL,4|Networking,4|Linux,3|Broadcast,5|Analytical,3||21
R15CS415|Tanmay|C,3|SQL,5|Networking,6|Linux,6|Broadcast,5|Analytical,4||29
R15EC002|A N Jothi Sreeram Dutt|C,3|SQL,5|Networking,3|Linux,4|Broadcast,4|Analytical,5||24
R15CS452|Zaid Ghori|C,3|SQL,4|Networking,5|Linux,7|Broadcast,5|Analytical,4||28
R15CS411|SYED EJAZ AHAMMED|C,4|SQL,4|Networking,5|Linux,5|Broadcast,6|Analytical,4||28
R15EC144|KASIREDDY OBUL MAHESHWAR REDDY|C,3|SQL,4|Networking,2|Linux,5|Broadcast,5|Analytical,6||25
R15CS306|RAJA DURGA SAI ESWAR|JavaScript,7|SQL,6|Networking,4|Linux,5|Broadcast,4|Analytical,5||31
R15CS241|NEELAM GANESH KUMAR REDDY|C,3|SQL,4|Networking,2|Linux,5|Broadcast,6|Analytical,5||25
R15CS327|Ronika R Surshetty|C,4|SQL,6|Networking,2|Linux,5|Broadcast,3|Analytical,2||22
R15CS264|PALLAVI K R|C,2|SQL,5|Networking,4|Linux,5|Broadcast,4|Analytical,1||21
R15CS325|ROHIT KUMAR SINGH|C,2|SQL,5|Networking,5|Linux,5|Broadcast,4|Analytical,2||23
R15CS422|UTKARSH TIWARI|C,3|SQL,6|Networking,4|Linux,4|Broadcast,4|Analytical,3||24
R15CS279|POTHU VISWATEJA REDDY|Java,5|SQL,6|Networking,4|Linux,4|Broadcast,5|Analytical,5||29
R15CS118|Gaurav Priyadarshi|C,5|SQL,5|Networking,6|Linux,5|Broadcast,5|Analytical,7||33
R15CS544|Mustaq B Nadaf|C,0|SQL,6|Networking,4|Linux,9|Broadcast,2|Analytical,5||26
R15CS537|SAI CHARAN JAINI|C,2|SQL,4|Networking,3|Linux,5|Broadcast,5|Analytical,3||22
R15CS314|Ramya V|C,2|SQL,7|Networking,6|Linux,4|Broadcast,8|Analytical,1||28
R15EC140|kamireddy Vishnuvardhan Reddy|C,2|SQL,4|Networking,3|Linux,3|Broadcast,4|Analytical,2||18
R15EC081|CHINTARLAPALLIREDDY YASWANTH SIMHA|C,4|SQL,3|Networking,2|Linux,7|Broadcast,5|Analytical,4||25
R15EC022|AKKARAPAKA JOHN ANVESH|C,4|SQL,2|Networking,2|Linux,6|Broadcast,5|Analytical,3||22
R15CS079|Bipul Mohanta|C,3|SQL,2|Networking,7|Linux,6|Broadcast,5|Analytical,3||26
R15EC162|LANKA VENKATA SAI RAGHU VAMSI|C,2|SQL,3|Networking,4|Linux,5|Broadcast,4|Analytical,3||21
R15EC137|MAHAMAD NOOR KALLUR|C,4|SQL,7|Networking,3|Linux,5|Broadcast,6|Analytical,6||31
R15EC207|NARAPUSETTY VENKATESH|C,4|SQL,5|Networking,3|Linux,4|Broadcast,5|Analytical,4||25
R15CS403|Suraj Kumar jaiswal|C,3|SQL,5|Networking,4|Linux,5|Broadcast,2|Analytical,2||21
R15EC126|Jinka Nagendra Babu|C,1|SQL,6|Networking,3|Linux,6|Broadcast,5|Analytical,4||25
R15EC373|Y.SAI NIHAR|C,3|SQL,3|Networking,5|Linux,2|Broadcast,3|Analytical,4||20
R15CS295|PURUSHOTHAMAPPAGARI LAKSHMI VIHARIKA|C,3|SQL,3|Networking,3|Linux,4|Broadcast,3|Analytical,5||21
R15EC154|KOTHURU KALYAN CHAKRAVARTHY|C,5|SQL,2|Networking,2|Linux,3|Broadcast,2|Analytical,5||19
R15CS001|A JESEE|C,3|SQL,8|Networking,6|Linux,6|Broadcast,2|Analytical,5||30
R15CS485|SANDEEP SHARMA|C,4|SQL,5|Networking,4|Linux,4|Broadcast,4|Analytical,3||24
R15CS155|KAUSHIK S|C,0|SQL,4|Networking,3|Linux,1|Broadcast,5|Analytical,3||16
R15EC295|shweta kalmude|C,0|SQL,3|Networking,5|Linux,2|Broadcast,3|Analytical,3||16
R16CS805|Damini R|C,3|SQL,5|Networking,2|Linux,4|Broadcast,2|Analytical,5||21
R15CS553|VENU S N|C,5|SQL,5|Networking,7|Linux,3|Broadcast,7|Analytical,8||35
R15CS72|Krishna Badiger|C,4|SQL,6|Networking,6|Linux,4|Broadcast,4|Analytical,1||25
R15CS430|VEMPALLI TEJASREE|C,2|SQL,1|Networking,3|Linux,5|Broadcast,2|Analytical,3||16
R16CS809|hema k|C,3|SQL,3|Networking,4|Linux,4|Broadcast,2|Analytical,4||20
R15EC271|S PRADEEP SWETHEN|C,3|SQL,2|Networking,6|Linux,4|Broadcast,2|Analytical,4||21
R15CS075|BESTA CHANDANA PRIYA|C,1|SQL,5|Networking,3|Linux,4|Broadcast,4|Analytical,3||20
R15CS116|GANESH HORAMATA BV|C,3|SQL,8|Networking,2|Linux,2|Broadcast,4|Analytical,4||23
R15CS093|Darshan C|C,3|SQL,6|Networking,4|Linux,3|Broadcast,3|Analytical,4||23
R15EC010|ABHISHEK SARKAR|C,4|SQL,4|Networking,2|Linux,3|Broadcast,2|Analytical,6||21
R15EC003|A rahul|C,1|SQL,4|Networking,2|Linux,4|Broadcast,4|Analytical,3||18
R15EC009|Abhishek Kumar B A|C,2|SQL,2|Networking,3|Linux,3|Broadcast,4|Analytical,3||17
R15CS142|Jagadeeshwari J|C,1|SQL,8|Networking,5|Linux,5|Broadcast,5|Analytical,7||31
R15CS147|JOSHITHA GUNREDDY|C,2|SQL,7|Networking,4|Linux,3|Broadcast,6|Analytical,5||27
R15EC247|Prasannambika.V|C++,3|SQL,3|Networking,4|Linux,6|Broadcast,2|Analytical,6||24
R15CS073|BASAVARADDI MULIMANI|C,2|SQL,3|Networking,3|Linux,2|Broadcast,4|Analytical,5||19
R15EC212|NEHA RANI|C,3|SQL,1|Networking,3|Linux,4|Broadcast,3|Analytical,6||20
R15EC345|OBILESH VUKKISILA|C,3|SQL,5|Networking,2|Linux,2|Broadcast,5|Analytical,3||20
R15EC136|Ali.k|C,4|SQL,5|Networking,3|Linux,2|Broadcast,4|Analytical,5||23
R15EC328|V ABHINAV|C,2|SQL,5|Networking,2|Linux,2|Broadcast,5|Analytical,3||19
R15CS126|Gundimi Srinidhi|C,4|SQL,6|Networking,6|Linux,6|Broadcast,6|Analytical,5||33
R15EC349|YARLAGADDA PAVAN KUMAR|C,2|SQL,2|Networking,4|Linux,6|Broadcast,6|Analytical,2||22
R15EC130|Juveria Roman Khan|C,6|SQL,5|Networking,4|Linux,4|Broadcast,7|Analytical,5||31
R15EC201|N NEHA|Java,5|SQL,5|Networking,4|Linux,2|Broadcast,4|Analytical,3||23
R15EC216|NISARGA M|C,2|SQL,3|Networking,3|Linux,5|Broadcast,5|Analytical,4||22
R15CS068|AYASYA V BULUSU|SQL,5|Networking,3|Linux,4|Broadcast,4|Analytical,5|C,5||26
R15EC250|PREETHI K S|C,4|SQL,2|Networking,3|Linux,2|Broadcast,2|Analytical,4||17
R15CS311|Rakshitha.K.M|C,7|SQL,4|Networking,5|Linux,4|Broadcast,4|Analytical,2||26
R15EC289|Shilpa.N|C,2|SQL,2|Networking,1|Linux,5|Broadcast,3|Analytical,4||17
