{
	"EvertzInterviewApp": {

		"CandidateCodeLocationWindows": "C:\\EvertzInterviewApplication\\CandidatePrograms\\",
		"CandidateCodeLocationUnix": "/home/EvertzInterviewApplication/CandidatePrograms/",
		"SQLServerIp": "localhost",
		"ServerListeningPort": "8080",
		"APIEndPoint": "api",
		"SQLUserName": "interviewapp",
		"SQLPassword": "evertzindia",
		"DatabaseName": "evertz_interview_app",
		"NumberOfCodingQuestions": "1",
		"LogFileLocationUnix": "/home/EvertzInterviewApplication/Log/DailyRollinglogs.log",
		"LogFileLocationWindows": "C:\\EvertzInterviewApplication\\Log\\DailyRollinglogs.log",
		"CProgramCompiler": "C:\\TDM-GCC-64\\bin\\gcc.exe",
		"CppProgramCompiler": "C:\\TDM-GCC-64\\bin\\g++.exe",
		"JavaProgramCompiler": "javac",
		"JavaProgramExecutor": "java",
		"PythonProgramCompiler": "python",
		"Log4jPropertiesLocation": "C:\\EvertzInterviewApplication\\SystemConfig\\log4j.properties",
	}
}
