{
	"EvertzInterviewApp": {
		"Subsystem": "Candidate",
		"Command": "GenerateQuestions",
		"ParameterList": {
			"RegisterNumber": "21810106013as",
			"QuestionType": "Coding"
		}
	}
}
{
	"EvertzInterviewApp": {
		"Command": "GenerateQuestions",
		"Subsystem": "Candidate",
		"ParameterList": {
			"RegisterNumber": "21810106013"
		},
		"Success": true
	}
}{
	"EvertzInterviewApp": {
		"Command": "GenerateQuestions",
		"Subsystem": "Candidate",
		"ParameterList": {
			"RegisterNumber": "21810106013as"
		},
		"Success": false,
		"Reason": "Unable to fetch Candidate Details ID for Register Number: 21810106013as"
	}
}
