{
	"EvertzInterviewApp": {
		"Subsystem": "Candidate",
		"Command": "Save",
		"ParameterList": {
			"RegisterNumber": "218120160132",
			"StudentName": "Balaji M S",
			"DOB": "1992-12-14",
			"Gender": "Male",
			"College": "11",
			"Degree": "1",
			"Stream": "1",
			"YearOfPassing": "2020",
			"CGPA": "80.25",
			"Email": "balajimunjuluru@gmail.com",
			"Mobile": "9940502882",
			"LanguageSelected": "18"
		}
	}
}
{
	"EvertzInterviewApp": {
		"Command": "Save",
		"Subsystem": "Candidate",
		"ParameterList": {
			"RegisterNumber": "218120160133"
		},
		"Success": true
	}
}
{
	"EvertzInterviewApp": {
		"Command": "Save",
		"Subsystem": "Candidate",
		"ParameterList": {
			"Status": "Data truncation: Incorrect date value: '12-12-1992' for column 'DOB' at row 1",
			"RegisterNumber": "218120160132"
		},
		"Success": false
	}
}
