{
	"EvertzInterviewApp": {
		"Subsystem": "UI",
		"Command": "Get",
		"ParameterList": {
			"UIDropdownField": "Branch"
		}
	}
} {
	"EvertzInterviewApp": {
		"Command": "Get",
		"Subsystem": "UI",
		"ParameterList": {
			"UIDropdownField": "Branch",
			"BranchList": [{
					"Id": 1,
					"Name": "ISE"
				}, {
					"Id": 2,
					"Name": "CSE"
				}
			]
		},
		"Success": true
	}
}{
	"EvertzInterviewApp": {
		"Command": "Get",
		"Subsystem": "UI",
		"ParameterList": {
			"UIDropdownField": "College2",
			"Reason": "No mapping found for College2"
		},
		"Success": false
	}
}
